<svg xmlns="http://www.w3.org/2000/svg" xmlns:xlink="http://www.w3.org/1999/xlink" width="20" height="20" viewBox="0 0 20 20">
  <defs>
    <clipPath id="clip-Artboard_2">
      <rect width="20" height="20"/>
    </clipPath>
  </defs>
  <g id="Artboard_2" data-name="Artboard – 2" clip-path="url(#clip-Artboard_2)">
    <g id="Location_Icon" data-name="Location Icon" transform="translate(-167 -840)">
      <rect id="bound" width="24" height="24" transform="translate(165 838)" fill="rgba(0,0,0,0)"/>
      <path id="Combined_Shape" data-name="Combined Shape" d="M177.5,859h0a36.824,36.824,0,0,1-3.749-3.562c-1.711-1.882-3.75-4.613-3.75-6.938a7.085,7.085,0,0,1,7.5-7.5,7.355,7.355,0,0,1,5.438,2.344A7.651,7.651,0,0,1,185,848.5c0,1.937-2.039,4.689-3.75,6.657A49.644,49.644,0,0,1,177.5,859Zm0-14a2.5,2.5,0,1,0,2.5,2.5A2.5,2.5,0,0,0,177.5,845Z" fill="#F6AB11"/>
    </g>
  </g>
</svg>
