<svg xmlns="http://www.w3.org/2000/svg" xmlns:xlink="http://www.w3.org/1999/xlink" width="103" height="57" viewBox="0 0 103 57">
  <defs>
    <filter id="Rectangle_5" x="-53.507" y="-28.842" width="212.271" height="158.51" filterUnits="userSpaceOnUse">
      <feOffset dy="20" input="SourceAlpha"/>
      <feGaussianBlur stdDeviation="20" result="blur"/>
      <feFlood flood-opacity="0.161"/>
      <feComposite operator="in" in2="blur"/>
      <feComposite in="SourceGraphic"/>
    </filter>
    <clipPath id="clip-Artboard_1">
      <rect width="103" height="57"/>
    </clipPath>
  </defs>
  <g id="Artboard_1" data-name="Artboard – 1" clip-path="url(#clip-Artboard_1)">
    <rect width="103" height="57" fill="rgba(245,245,245,0)"/>
    <g id="Component_2_1" data-name="Component 2 – 1" transform="translate(3.551 6.745)">
      <g id="Group_115" data-name="Group 115" transform="translate(-1263.551 -30.745)">
        <g id="Group_98" data-name="Group 98">
          <g id="Group_11" data-name="Group 11" transform="translate(12.736 6.417)">
            <g id="Group_7" data-name="Group 7" transform="translate(1253.757 28.742)">
              <g id="Group_6" data-name="Group 6" transform="translate(0 0)" style="isolation: isolate">
                <g transform="matrix(1, 0, 0, 1, -6.49, -11.16)" filter="url(#Rectangle_5)">
                  <rect id="Rectangle_5-2" data-name="Rectangle 5" width="92.271" height="38.51" rx="10.701" transform="translate(6.49 11.16)" fill="#0a5c96"/>
                </g>
              </g>
            </g>
            <g id="Group_8" data-name="Group 8" transform="translate(1250.814 24.328)">
              <g id="Group_6-2" data-name="Group 6" transform="translate(0)" style="isolation: isolate">
                <rect id="Rectangle_5-3" data-name="Rectangle 5" width="92.271" height="38.51" rx="10.701" fill="#3d87cb"/>
              </g>
            </g>
          </g>
        </g>
        <g id="Group_114" data-name="Group 114">
          <g id="Group_110" data-name="Group 110" transform="translate(142.814 -317.018)">
            <path id="Path_122" data-name="Path 122" d="M1296.8,393.642h-.886v1.592h.886a.8.8,0,1,0,0-1.592Z" transform="translate(-150.579 -35.738)" fill="none"/>
            <path id="Path_123" data-name="Path 123" d="M1815.935,393.667h-.886v1.592h.886a.8.8,0,1,0,0-1.592Z" transform="translate(-630.945 -35.761)" fill="none"/>
            <path id="Path_124" data-name="Path 124" d="M1141.506,357.5H1133.4a.229.229,0,0,0-.21.225v2.268a.215.215,0,0,0,.21.21h2.494v7.448a.229.229,0,0,0,.225.21h2.658a.215.215,0,0,0,.21-.21V360.2h2.237a.255.255,0,0,0,.24-.21l.225-2.283A.2.2,0,0,0,1141.506,357.5Z" transform="translate(0 -2.292)" fill="#fff"/>
            <path id="Path_125" data-name="Path 125" d="M1379.806,363.936v-6.222a.222.222,0,0,0-.218-.225h-2.666a.229.229,0,0,0-.21.225v6.545c.439-.013.877-.034,1.313-.076C1378.625,364.127,1379.217,364.03,1379.806,363.936Z" transform="translate(-225.341 -2.287)" fill="#fff"/>
            <path id="Path_126" data-name="Path 126" d="M1436.278,362.853a.4.4,0,0,0,.223-.133c.047-.076,0-.172-.128-.3a4.6,4.6,0,0,0-.425-.346l-.143-.111-.073-.057q-1-.772-2-1.541a1.64,1.64,0,0,0-.3-.172.688.688,0,0,1-.126-.075.371.371,0,0,1-.124-.509l.014-.021a.61.61,0,0,1,.277-.162,2.4,2.4,0,0,1,1.392.043c.471.115.943.247,1.414.377.763.206,1.523.42,2.287.623.419.112.848.206,1.264.314.25.065.494.15.744.213-.039-2.1-1.609-3.495-4.206-3.495h-3.546a.229.229,0,0,0-.21.225v6.061a18.16,18.16,0,0,0,2.38-.543C1435.428,363.12,1435.856,362.992,1436.278,362.853Z" transform="translate(-277.07 -2.298)" fill="#fff"/>
            <path id="Path_127" data-name="Path 127" d="M1501.38,357.5h-3.545a.229.229,0,0,0-.21.225v3.251l3.239-1.08a1.688,1.688,0,0,1,1.751.4.526.526,0,0,1,.077.236.988.988,0,0,1-.189.766,1.815,1.815,0,0,1-.172.144,3.491,3.491,0,0,1-.591.338c-.128.06-.256.119-.386.178-.457.207-.919.4-1.383.6-.418.173-.848.317-1.271.484a.64.64,0,0,0-.267.179q-.407.525-.812,1.052-.732.95-1.459,1.9l-1.569,2.047a1.38,1.38,0,0,1-1,.3c-.023.129-.022.255.146.325a1.356,1.356,0,0,0,1.018-.291l1.569-2.047,1.3-1.7v2.842a.226.226,0,0,0,.21.21h2.691a.233.233,0,0,0,.24-.21v-3h.615c2.628,0,4.207-1.427,4.207-3.575S1504.014,357.5,1501.38,357.5Z" transform="translate(-333.483 -2.298)" fill="#fff"/>
            <path id="Path_128" data-name="Path 128" d="M1669.577,365.144h-4.1v-1.276h2.914a.264.264,0,0,0,.255-.2l.21-2.1a.18.18,0,0,0-.164-.2h-3.216v-1.187h3.921a.225.225,0,0,0,.24-.21c0-.005,0-.01,0-.016v-2.268a.233.233,0,0,0-.24-.21h-6.837a.189.189,0,0,0-.21.164.184.184,0,0,0,0,.046v9.929c.03.106.135.225.24.225h6.985a.229.229,0,0,0,.225-.21v-2.3A.217.217,0,0,0,1669.577,365.144Z" transform="translate(-489.647 -2.28)" fill="#fff"/>
            <path id="Path_129" data-name="Path 129" d="M1779.59,363.715a3.168,3.168,0,0,0,1.848-2.869c0-2.043-1.532-3.394-3.845-3.394h-3.966a.231.231,0,0,0-.225.225v9.929a.229.229,0,0,0,.225.21h2.64a.233.233,0,0,0,.24-.21v-3.3h.18l1.562,3.275a.394.394,0,0,0,.345.24h3.215c.141,0,.246-.1.171-.238Zm-2.07-1.964a.812.812,0,0,1-.123,0h-.886v-1.592h.886a.8.8,0,1,1,.123,1.592Z" transform="translate(-592.407 -2.252)" fill="#fff"/>
            <path id="Path_130" data-name="Path 130" d="M1272.791,364.687c.008-.044.016-.089.024-.133.018-.111-.009-.164-.054-.188a.472.472,0,0,0-.243.008c-.231.034-.459.086-.688.134l-.157.032c-.318.063-.634.134-.951.194-.153.029-.305.056-.459.078-.552.078-1.11.122-1.667.174-.337.032-.676.065-1.014.094q-.359.033-.718.059c-.121.009-.241.012-.363.014-.156,0-.31,0-.465-.008-.631-.024-1.262-.042-1.892-.094l-.737-.059c-.6-.05-1.2-.108-1.791-.2q-.253-.038-.505-.094c-.289-.06-.576-.132-.864-.2-.188-.049-.386-.094-.58-.144-.045-.01-.074-.084-.16-.188h1.273l-.332-.536a3.169,3.169,0,0,0,1.848-2.869c0-2.043-1.532-3.394-3.845-3.394h-3.966a.231.231,0,0,0-.225.225v9.929a.229.229,0,0,0,.225.21h2.64a.233.233,0,0,0,.24-.21v-3.3h.18l1.562,3.275a.394.394,0,0,0,.345.24h3.215c.135,0,.24-.106.165-.24l-1.517-2.451c.151.031.3.059.455.081.54.081,1.086.136,1.631.183v2.217a.226.226,0,0,0,.21.21h2.658a.219.219,0,0,0,.225-.21v-2.044c.174,0,.35,0,.523-.014l.558-.045v2.1a.226.226,0,0,0,.21.21h2.689a.233.233,0,0,0,.24-.21v-2.435c.371-.066.741-.15,1.111-.224.283-.056.566-.124.849-.167A.6.6,0,0,0,1272.791,364.687Zm-14.414-3.017a.8.8,0,0,1-.123,0h-.886v-1.592h.886a.8.8,0,1,1,.123,1.592Z" transform="translate(-112.03 -2.174)" fill="#fff"/>
            <path id="Path_131" data-name="Path 131" d="M1896.065,358.316c0-.326.3-.532.755-.532a5.961,5.961,0,0,1,2.085.769c.119.074.221.03.266-.119l.932-2.085c.044-.074,0-.192-.118-.266a6.411,6.411,0,0,0-3.313-1.065c-2.248,0-3.742,1.317-3.742,3.3,0,3.224,4.156,3.18,4.156,4.052,0,.34-.311.562-.784.562a5.58,5.58,0,0,1-2.056-.71c-.119-.073-.223-.029-.266.119l-.932,2.085c-.045.074,0,.178.118.266a5.612,5.612,0,0,0,3.284.976c2.277,0,3.8-1.316,3.8-3.283C1900.251,359.13,1896.065,359.189,1896.065,358.316Z" transform="translate(-703.01)" fill="#fff"/>
          </g>
          <g id="Group_111" data-name="Group 111" transform="translate(152.149 -490.826)">
            <path id="Path_132" data-name="Path 132" d="M1128.818,553.718a5.038,5.038,0,1,1,4.968-5.024A4.723,4.723,0,0,1,1128.818,553.718Zm0-7.249a2.25,2.25,0,1,0,1.918,2.225A1.976,1.976,0,0,0,1128.818,546.468Z" transform="translate(0 0)" fill="#fff"/>
            <path id="Path_133" data-name="Path 133" d="M1279.235,546.691a.206.206,0,0,1,.21.21v9.25a.2.2,0,0,1-.21.2h-2.421a.381.381,0,0,1-.294-.182l-2.435-4.352v4.338a.2.2,0,0,1-.21.2H1271.4a.2.2,0,0,1-.2-.2V546.9a.2.2,0,0,1,.2-.21h2.421a.37.37,0,0,1,.321.182l2.421,4.352V546.9a.213.213,0,0,1,.2-.21Z" transform="translate(-136.529 -2.825)" fill="#fff"/>
            <path id="Path_134" data-name="Path 134" d="M1402.7,553.828a.188.188,0,0,1,.181.2l-.2,2.127a.239.239,0,0,1-.223.2H1397.4a.213.213,0,0,1-.21-.2V546.9a.215.215,0,0,1,.21-.21h2.477a.215.215,0,0,1,.21.21v6.927Z" transform="translate(-253.267 -2.825)" fill="#fff"/>
            <path id="Path_135" data-name="Path 135" d="M1463.764,546.691c.125,0,.223.1.154.224l-3.092,5.57v3.666a.213.213,0,0,1-.21.2h-2.464a.213.213,0,0,1-.21-.2v-3.666l-3.092-5.57c-.071-.126.027-.224.154-.224h2.91a.367.367,0,0,1,.322.224l1.147,2.519,1.147-2.519a.367.367,0,0,1,.321-.224Z" transform="translate(-306.665 -2.825)" fill="#fff"/>
          </g>
        </g>
      </g>
    </g>
  </g>
</svg>
