<svg xmlns="http://www.w3.org/2000/svg" xmlns:xlink="http://www.w3.org/1999/xlink" width="228.75" height="33.279" viewBox="0 0 228.75 33.279">
  <defs>
    <clipPath id="clip-path">
      <path id="Path_394" data-name="Path 394" d="M-865.846,798.39c.864-.011,1.732-.013,2.591-.092.953-.088,1.9-.268,2.845-.392a18.84,18.84,0,0,0,2.728-.592c.455-.13.909-.263,1.359-.408.308-.1.336-.228.1-.461a5.059,5.059,0,0,0-.45-.37q-1.17-.915-2.342-1.826a1.7,1.7,0,0,0-.317-.184.442.442,0,0,1-.248-.643c.137-.052.267-.1.393-.151a2.085,2.085,0,0,1,1.381.033c.5.124,1,.267,1.5.405.809.224,1.616.454,2.426.674.445.121.9.222,1.341.34.28.074.554.173.835.242.519.128.95-.192,1.423-.3.388-.09.774-.195,1.153-.318a14.89,14.89,0,0,0,1.494-.539,1.76,1.76,0,0,1,1.858.437,1.061,1.061,0,0,1-.123,1.064,3.025,3.025,0,0,1-.812.508c-.619.289-1.249.555-1.882.814-.445.182-.9.333-1.351.507a.682.682,0,0,0-.284.19c-.814,1.038-1.619,2.083-2.427,3.126l-1.677,2.166a1.443,1.443,0,0,1-1.083.3c-.228-.1-.166-.286-.128-.459.092-.421.181-.843.287-1.26.124-.49.271-.973.4-1.461.076-.294.145-.592.194-.891s-.178-.211-.315-.191c-.3.043-.6.115-.9.173-.5.1-1,.212-1.5.281-.587.081-1.18.123-1.771.177-.613.056-1.227.113-1.841.155a8.044,8.044,0,0,1-.879,0c-.67-.029-1.341-.052-2.008-.108-.9-.076-1.8-.148-2.685-.285-.7-.107-1.379-.309-2.066-.478-.048-.011-.079-.089-.169-.2.795,0,1.526.014,2.243.014q.352,0,.7,0m-6.414-1.156a15.326,15.326,0,0,0,15.326,15.326,15.326,15.326,0,0,0,15.327-15.326,15.326,15.326,0,0,0-15.327-15.326,15.326,15.326,0,0,0-15.326,15.326" transform="translate(872.26 -781.907)" fill="none"/>
    </clipPath>
    <linearGradient id="linear-gradient" x1="7.205" y1="11.934" x2="7.212" y2="11.934" gradientUnits="objectBoundingBox">
      <stop offset="0" stop-color="#e10046"/>
      <stop offset="0.328" stop-color="#e94d2d"/>
      <stop offset="0.792" stop-color="#f4b60d"/>
      <stop offset="0.999" stop-color="#f9e000"/>
      <stop offset="1" stop-color="#f9e000"/>
    </linearGradient>
  </defs>
  <g id="Group_287" data-name="Group 287" transform="translate(1195.209 -781.907)">
    <g id="Group_285" data-name="Group 285" transform="translate(-1195.209 781.907)">
      <g id="Group_279" data-name="Group 279" transform="translate(0 0.701)">
        <g id="Group_277" data-name="Group 277">
          <path id="Path_376" data-name="Path 376" d="M-1171.563,783.9a.56.56,0,0,1,.6.6l-.643,6.511a.727.727,0,0,1-.685.6h-6.383v21.247a.613.613,0,0,1-.6.6h-7.583a.653.653,0,0,1-.642-.6V791.608h-7.111a.613.613,0,0,1-.6-.6V784.54a.653.653,0,0,1,.6-.643Z" transform="translate(1195.209 -783.897)"/>
          <path id="Path_377" data-name="Path 377" d="M-1097.56,812.77c.214.385-.086.685-.471.685h-9.167a1.124,1.124,0,0,1-.985-.685l-4.455-9.339h-.514v9.424a.664.664,0,0,1-.685.6h-7.539a.653.653,0,0,1-.643-.6V784.54a.659.659,0,0,1,.643-.643h11.309c6.6,0,10.966,3.856,10.966,9.681a9.038,9.038,0,0,1-5.269,8.182Zm-13.065-16.621a2.23,2.23,0,0,0,2.441-2.27,2.229,2.229,0,0,0-2.441-2.27h-2.528v4.541Z" transform="translate(1147.809 -783.897)"/>
          <path id="Path_378" data-name="Path 378" d="M-1039.8,783.9a.631.631,0,0,1,.642.643v28.316a.623.623,0,0,1-.642.6h-7.582a.645.645,0,0,1-.6-.6V784.54a.653.653,0,0,1,.6-.643Z" transform="translate(1099.857 -783.897)"/>
          <path id="Path_379" data-name="Path 379" d="M-1003.471,783.9c7.5,0,11.995,4.07,11.995,10.2s-4.5,10.2-11.995,10.2h-1.756v8.568a.664.664,0,0,1-.686.6h-7.668a.645.645,0,0,1-.6-.6V784.54a.653.653,0,0,1,.6-.643Zm.385,12.723a2.406,2.406,0,0,0,2.527-2.527,2.406,2.406,0,0,0-2.527-2.527h-2.227v5.055Z" transform="translate(1077.967 -783.897)"/>
          <path id="Path_380" data-name="Path 380" d="M-931.144,783.9c5.612,0,9.339,3.341,9.339,8.353,0,3.084-1.5,5.355-3.812,6.04,2.7.685,4.455,3.255,4.455,6.811,0,5.012-3.727,8.353-9.3,8.353h-13.58a.613.613,0,0,1-.6-.6V784.54a.651.651,0,0,1,.6-.643Zm-1.97,11.609a1.938,1.938,0,0,0,2.142-1.97,1.938,1.938,0,0,0-2.142-1.97h-2.7v3.941Zm.771,10.281a1.967,1.967,0,0,0,2.1-2.056,1.967,1.967,0,0,0-2.1-2.056h-3.47v4.112Z" transform="translate(1032.929 -783.897)"/>
          <path id="Path_381" data-name="Path 381" d="M-759.426,812.9a.386.386,0,0,1-.385.557h-8.482a1,1,0,0,1-.9-.557l-1.285-4.5h-8.053l-1.285,4.5a1,1,0,0,1-.9.557H-789.2a.386.386,0,0,1-.386-.557l9.681-28.444a1.3,1.3,0,0,1,1.028-.557h8.739a1.3,1.3,0,0,1,1.028.557ZM-774.5,794.135l-2.313,8.139h4.626Z" transform="translate(932.537 -783.897)"/>
          <path id="Path_382" data-name="Path 382" d="M-677.022,812.77c.214.385-.086.685-.471.685h-9.167a1.123,1.123,0,0,1-.985-.685l-4.455-9.339h-.514v9.424a.664.664,0,0,1-.685.6h-7.54a.653.653,0,0,1-.642-.6V784.54a.659.659,0,0,1,.642-.643h11.309c6.6,0,10.966,3.856,10.966,9.681a9.037,9.037,0,0,1-5.269,8.182Zm-13.065-16.621a2.23,2.23,0,0,0,2.442-2.27,2.23,2.23,0,0,0-2.442-2.27h-2.527v4.541Z" transform="translate(875.451 -783.897)"/>
          <path id="Path_383" data-name="Path 383" d="M-616.9,783.9c9.081,0,15.121,5.869,15.121,14.779,0,8.824-6.04,14.779-15.121,14.779h-9.938a.653.653,0,0,1-.6-.643V784.54a.653.653,0,0,1,.6-.643Zm.514,21.847c3.3,0,5.526-2.827,5.526-7.068s-2.228-7.068-5.526-7.068h-2.228v14.136Z" transform="translate(827.499 -783.897)"/>
        </g>
        <g id="Group_278" data-name="Group 278">
          <path id="Path_385" data-name="Path 385" d="M-1171.563,783.9a.56.56,0,0,1,.6.6l-.643,6.511a.727.727,0,0,1-.685.6h-6.383v21.247a.613.613,0,0,1-.6.6h-7.583a.653.653,0,0,1-.642-.6V791.608h-7.111a.613.613,0,0,1-.6-.6V784.54a.653.653,0,0,1,.6-.643Z" transform="translate(1195.209 -783.897)" fill="#fff"/>
          <path id="Path_386" data-name="Path 386" d="M-1097.56,812.77c.214.385-.086.685-.471.685h-9.167a1.124,1.124,0,0,1-.985-.685l-4.455-9.339h-.514v9.424a.664.664,0,0,1-.685.6h-7.539a.653.653,0,0,1-.643-.6V784.54a.659.659,0,0,1,.643-.643h11.309c6.6,0,10.966,3.856,10.966,9.681a9.038,9.038,0,0,1-5.269,8.182Zm-13.065-16.621a2.23,2.23,0,0,0,2.441-2.27,2.229,2.229,0,0,0-2.441-2.27h-2.528v4.541Z" transform="translate(1147.809 -783.897)" fill="#fff"/>
          <path id="Path_387" data-name="Path 387" d="M-1039.8,783.9a.631.631,0,0,1,.642.643v28.316a.623.623,0,0,1-.642.6h-7.582a.645.645,0,0,1-.6-.6V784.54a.653.653,0,0,1,.6-.643Z" transform="translate(1099.857 -783.897)" fill="#fff"/>
          <path id="Path_388" data-name="Path 388" d="M-1003.471,783.9c7.5,0,11.995,4.07,11.995,10.2s-4.5,10.2-11.995,10.2h-1.756v8.568a.664.664,0,0,1-.686.6h-7.668a.645.645,0,0,1-.6-.6V784.54a.653.653,0,0,1,.6-.643Zm.385,12.723a2.406,2.406,0,0,0,2.527-2.527,2.406,2.406,0,0,0-2.527-2.527h-2.227v5.055Z" transform="translate(1077.967 -783.897)" fill="#fff"/>
          <path id="Path_389" data-name="Path 389" d="M-931.144,783.9c5.612,0,9.339,3.341,9.339,8.353,0,3.084-1.5,5.355-3.812,6.04,2.7.685,4.455,3.255,4.455,6.811,0,5.012-3.727,8.353-9.3,8.353h-13.58a.613.613,0,0,1-.6-.6V784.54a.651.651,0,0,1,.6-.643Zm-1.97,11.609a1.938,1.938,0,0,0,2.142-1.97,1.938,1.938,0,0,0-2.142-1.97h-2.7v3.941Zm.771,10.281a1.967,1.967,0,0,0,2.1-2.056,1.967,1.967,0,0,0-2.1-2.056h-3.47v4.112Z" transform="translate(1032.929 -783.897)" fill="#fff"/>
          <path id="Path_390" data-name="Path 390" d="M-759.426,812.9a.386.386,0,0,1-.385.557h-8.482a1,1,0,0,1-.9-.557l-1.285-4.5h-8.053l-1.285,4.5a1,1,0,0,1-.9.557H-789.2a.386.386,0,0,1-.386-.557l9.681-28.444a1.3,1.3,0,0,1,1.028-.557h8.739a1.3,1.3,0,0,1,1.028.557ZM-774.5,794.135l-2.313,8.139h4.626Z" transform="translate(932.537 -783.897)" fill="#fff"/>
          <path id="Path_391" data-name="Path 391" d="M-677.022,812.77c.214.385-.086.685-.471.685h-9.167a1.123,1.123,0,0,1-.985-.685l-4.455-9.339h-.514v9.424a.664.664,0,0,1-.685.6h-7.54a.653.653,0,0,1-.642-.6V784.54a.659.659,0,0,1,.642-.643h11.309c6.6,0,10.966,3.856,10.966,9.681a9.037,9.037,0,0,1-5.269,8.182Zm-13.065-16.621a2.23,2.23,0,0,0,2.442-2.27,2.23,2.23,0,0,0-2.442-2.27h-2.527v4.541Z" transform="translate(875.451 -783.897)" fill="#fff"/>
          <path id="Path_392" data-name="Path 392" d="M-616.9,783.9c9.081,0,15.121,5.869,15.121,14.779,0,8.824-6.04,14.779-15.121,14.779h-9.938a.653.653,0,0,1-.6-.643V784.54a.653.653,0,0,1,.6-.643Zm.514,21.847c3.3,0,5.526-2.827,5.526-7.068s-2.228-7.068-5.526-7.068h-2.228v14.136Z" transform="translate(827.499 -783.897)" fill="#fff"/>
        </g>
      </g>
      <g id="Group_284" data-name="Group 284" transform="translate(113.794)">
        <g id="Group_281" data-name="Group 281">
          <g id="Group_280" data-name="Group 280" clip-path="url(#clip-path)">
            <rect id="Rectangle_45" data-name="Rectangle 45" width="43.349" height="43.349" transform="translate(-15.326 15.326) rotate(-45)" fill="url(#linear-gradient)"/>
          </g>
        </g>
        <g id="Group_283" data-name="Group 283">
          <g id="Group_282" data-name="Group 282" clip-path="url(#clip-path)">
            <rect id="Rectangle_46" data-name="Rectangle 46" width="43.349" height="43.349" transform="translate(-15.326 15.326) rotate(-45)" fill="#fff"/>
          </g>
        </g>
      </g>
    </g>
    <g id="Group_286" data-name="Group 286" transform="translate(-1193.958 783.944)">
      <path id="Path_396" data-name="Path 396" d="M-1167.932,787.688a.562.562,0,0,1,.6.6l-.645,6.534a.729.729,0,0,1-.688.6h-6.4v21.321a.615.615,0,0,1-.6.6h-7.608a.655.655,0,0,1-.645-.6V795.425h-7.136a.615.615,0,0,1-.6-.6v-6.491a.655.655,0,0,1,.6-.645Z" transform="translate(1191.66 -787.688)" fill="none" stroke="#3d87cb" stroke-miterlimit="10" stroke-width="2"/>
      <path id="Path_397" data-name="Path 397" d="M-1093.672,816.66c.215.387-.086.688-.473.688h-9.2a1.127,1.127,0,0,1-.989-.688l-4.47-9.371h-.516v9.457a.666.666,0,0,1-.688.6h-7.565a.655.655,0,0,1-.645-.6V788.333a.661.661,0,0,1,.645-.645h11.348c6.62,0,11,3.869,11,9.715a9.069,9.069,0,0,1-5.287,8.21Zm-13.111-16.678a2.237,2.237,0,0,0,2.45-2.278,2.237,2.237,0,0,0-2.45-2.278h-2.536v4.556Z" transform="translate(1144.095 -787.688)" fill="none" stroke="#3d87cb" stroke-miterlimit="10" stroke-width="2"/>
      <path id="Path_398" data-name="Path 398" d="M-1035.709,787.688a.633.633,0,0,1,.644.645v28.414a.625.625,0,0,1-.644.6h-7.609a.647.647,0,0,1-.6-.6V788.333a.655.655,0,0,1,.6-.645Z" transform="translate(1095.978 -787.688)" fill="none" stroke="#3d87cb" stroke-miterlimit="10" stroke-width="2"/>
      <path id="Path_399" data-name="Path 399" d="M-999.257,787.688c7.523,0,12.036,4.083,12.036,10.23s-4.514,10.231-12.036,10.231h-1.763v8.6a.666.666,0,0,1-.688.6h-7.694a.647.647,0,0,1-.6-.6V788.333a.655.655,0,0,1,.6-.645Zm.387,12.767a2.414,2.414,0,0,0,2.536-2.536,2.414,2.414,0,0,0-2.536-2.536h-2.235v5.072Z" transform="translate(1074.012 -787.688)" fill="none" stroke="#3d87cb" stroke-miterlimit="10" stroke-width="2"/>
      <path id="Path_400" data-name="Path 400" d="M-926.681,787.688c5.631,0,9.371,3.353,9.371,8.382,0,3.1-1.5,5.373-3.826,6.061,2.708.688,4.47,3.267,4.47,6.835,0,5.029-3.74,8.382-9.328,8.382h-13.626a.615.615,0,0,1-.6-.6V788.333a.653.653,0,0,1,.6-.645Zm-1.977,11.649a1.945,1.945,0,0,0,2.149-1.977,1.945,1.945,0,0,0-2.149-1.977h-2.708v3.955Zm.774,10.317a1.974,1.974,0,0,0,2.106-2.063,1.974,1.974,0,0,0-2.106-2.063h-3.482v4.127Z" transform="translate(1028.818 -787.688)" fill="none" stroke="#3d87cb" stroke-miterlimit="10" stroke-width="2"/>
      <path id="Path_401" data-name="Path 401" d="M-754.367,816.789a.387.387,0,0,1-.387.559h-8.511a1,1,0,0,1-.9-.559l-1.29-4.514h-8.081l-1.29,4.514a1,1,0,0,1-.9.559h-8.511a.387.387,0,0,1-.387-.559l9.714-28.542a1.3,1.3,0,0,1,1.032-.559h8.769a1.3,1.3,0,0,1,1.032.559ZM-769.5,797.961l-2.321,8.167h4.642Z" transform="translate(928.078 -787.688)" fill="none" stroke="#3d87cb" stroke-miterlimit="10" stroke-width="2"/>
      <path id="Path_402" data-name="Path 402" d="M-671.678,816.66c.215.387-.086.688-.472.688h-9.2a1.127,1.127,0,0,1-.989-.688l-4.471-9.371h-.515v9.457a.666.666,0,0,1-.688.6h-7.566a.655.655,0,0,1-.645-.6V788.333a.661.661,0,0,1,.645-.645h11.348c6.62,0,11,3.869,11,9.715a9.069,9.069,0,0,1-5.287,8.21Zm-13.11-16.678a2.238,2.238,0,0,0,2.45-2.278,2.238,2.238,0,0,0-2.45-2.278h-2.536v4.556Z" transform="translate(870.795 -787.688)" fill="none" stroke="#3d87cb" stroke-miterlimit="10" stroke-width="2"/>
      <path id="Path_403" data-name="Path 403" d="M-611.351,787.688c9.113,0,15.174,5.889,15.174,14.83,0,8.855-6.061,14.83-15.174,14.83h-9.973a.655.655,0,0,1-.6-.645V788.333a.655.655,0,0,1,.6-.645Zm.516,21.923c3.31,0,5.545-2.837,5.545-7.093s-2.235-7.093-5.545-7.093h-2.235v14.185Z" transform="translate(822.677 -787.688)" fill="none" stroke="#3d87cb" stroke-miterlimit="10" stroke-width="2"/>
    </g>
    <path id="Path_405" data-name="Path 405" d="M-853.329,786.949a15.251,15.251,0,0,0-15.25,15.251,15.251,15.251,0,0,0,15.25,15.251,15.251,15.251,0,0,0,15.25-15.251,15.251,15.251,0,0,0-15.25-15.251m10.178,13.841c-.616.287-1.243.552-1.873.81-.443.181-.9.33-1.344.5a.663.663,0,0,0-.283.188c-.81,1.034-1.611,2.073-2.415,3.111l-1.668,2.155a1.434,1.434,0,0,1-1.077.3c-.227-.1-.166-.284-.128-.457.092-.419.18-.838.286-1.253.123-.487.269-.968.4-1.454.076-.293.144-.589.193-.887s-.177-.211-.313-.19c-.3.043-.6.114-.895.171-.5.1-.991.211-1.49.281-.585.08-1.175.121-1.762.176-.611.055-1.221.112-1.832.154a8.424,8.424,0,0,1-.875,0c-.666-.029-1.333-.052-2-.107-.893-.076-1.788-.146-2.673-.284-.693-.107-1.372-.308-2.056-.475-.048-.012-.079-.09-.169-.2,1.05.006,1.991.023,2.93.011.861-.011,1.724-.013,2.579-.092.948-.087,1.886-.267,2.831-.39a18.763,18.763,0,0,0,2.714-.589c.453-.129.906-.261,1.352-.406.308-.1.334-.227.1-.459a5.179,5.179,0,0,0-.449-.368q-1.163-.911-2.33-1.817a1.756,1.756,0,0,0-.315-.183.44.44,0,0,1-.247-.64c.136-.052.266-.1.391-.15a2.08,2.08,0,0,1,1.374.033c.5.124,1,.266,1.5.4.8.223,1.608.452,2.415.671.442.12.89.221,1.334.339.279.074.551.173.831.242.517.127.945-.192,1.415-.3.387-.091.771-.195,1.147-.318a14.755,14.755,0,0,0,1.487-.536,1.748,1.748,0,0,1,1.848.435,1.057,1.057,0,0,1-.122,1.059,3.013,3.013,0,0,1-.808.5" transform="translate(-211.539 -3.265)" fill="none" stroke="#3d87cb" stroke-miterlimit="10" stroke-width="2"/>
  </g>
</svg>
