<svg xmlns="http://www.w3.org/2000/svg" xmlns:xlink="http://www.w3.org/1999/xlink" width="100" height="100" viewBox="0 0 100 100">
  <defs>
    <linearGradient id="linear-gradient" y1="0.5" x2="1" y2="0.5" gradientUnits="objectBoundingBox">
      <stop offset="0" stop-color="#e40046"/>
      <stop offset="0.111" stop-color="#e40444"/>
      <stop offset="0.243" stop-color="#e61340"/>
      <stop offset="0.386" stop-color="#e82b38"/>
      <stop offset="0.536" stop-color="#ec4c2e"/>
      <stop offset="0.693" stop-color="#f07721"/>
      <stop offset="0.851" stop-color="#f6ab11"/>
      <stop offset="0.999" stop-color="#fce300"/>
    </linearGradient>
    <clipPath id="clip-Artboard_4">
      <rect width="100" height="100"/>
    </clipPath>
  </defs>
  <g id="Artboard_4" data-name="Artboard – 4" clip-path="url(#clip-Artboard_4)">
    <g id="Group_165" data-name="Group 165" transform="translate(-1195 -751)">
      <g id="Search_Button" data-name="Search Button" transform="translate(0 -49)">
        <rect id="Bg" width="100" height="100" rx="5" transform="translate(1195 800)" fill="#fce300"/>
      </g>
      <path id="Path_1" data-name="Path 1" d="M147.455,1316.261c3.693,0,7,.044,10.31-.013,3.025-.052,6.062-.075,9.07-.367,3.332-.325,6.631-.97,9.952-1.419a65.765,65.765,0,0,0,9.54-2.117c1.591-.463,3.18-.934,4.752-1.453,1.078-.354,1.172-.8.349-1.615a17.455,17.455,0,0,0-1.583-1.286q-4.108-3.183-8.227-6.353a6.054,6.054,0,0,0-1.113-.637,1.549,1.549,0,0,1-.879-2.248c.478-.186.934-.342,1.374-.535,1.627-.713,3.238-.292,4.833.093,1.766.426,3.515.918,5.268,1.395,2.835.769,5.665,1.562,8.5,2.318,1.56.416,3.138.763,4.7,1.169.983.255,1.943.6,2.929.835,1.82.44,3.322-.689,4.974-1.082,1.357-.323,2.707-.7,4.032-1.135a51.865,51.865,0,0,0,5.221-1.911c1.918-.873,5.257-.17,6.511,1.5a3.713,3.713,0,0,1-.413,3.726,10.628,10.628,0,0,1-2.835,1.792c-2.162,1.022-4.364,1.964-6.575,2.88-1.555.646-3.156,1.178-4.723,1.8a2.384,2.384,0,0,0-.992.667c-2.83,3.65-5.634,7.321-8.444,10.986q-2.917,3.805-5.832,7.611a5.053,5.053,0,0,1-3.787,1.083c-.8-.336-.588-1-.458-1.606.316-1.475.619-2.953.982-4.416.427-1.715.932-3.41,1.367-5.122.262-1.032.5-2.074.667-3.124.161-1-.627-.734-1.105-.662-1.055.158-2.1.412-3.143.619-1.746.346-3.482.761-5.241,1.011-2.055.293-4.128.45-6.195.649-2.146.206-4.292.418-6.442.574a28,28,0,0,1-3.078.026c-2.346-.088-4.694-.158-7.033-.345-3.14-.25-6.291-.485-9.4-.95-2.442-.365-4.835-1.062-7.243-1.638C147.883,1316.917,147.772,1316.644,147.455,1316.261Z" transform="translate(1059.545 -513.041)" fill="url(#linear-gradient)"/>
    </g>
  </g>
</svg>
