<svg xmlns="http://www.w3.org/2000/svg" width="26" height="26" viewBox="0 0 26 26">
  <g id="Group_4_Copy" data-name="Group 4 Copy" transform="translate(-7 -7)">
    <rect id="Rectangle" width="26" height="26" rx="5" transform="translate(7 7)" fill="#fce302"/>
    <path id="close_-_material" data-name="close - material" d="M4.074-8.148.826-4.9,4.074-1.652l-.826.826L0-4.074-3.248-.826l-.826-.826L-.826-4.9-4.074-8.148l.826-.826L0-5.726,3.248-8.974Z" transform="translate(20 24)"/>
  </g>
</svg>
